[
  {
    "name": "GIS Hub Kawal COVID-19",
    "link": "https://kcov.id/map"
  },
  {
    "name": "Peta Kasus COVID-19 di Indonesia",
    "link": "https://kcov.id/petapositif"
  },
  {
    "name": "Kompilasi TurnBackHoax COVID-19",
    "link": "https://kcov.id/mafindokompilasihoax"
  },
  {
    "name": "Peta Rumah Sakit Rujukan di Indonesia",
    "link": "https://kawalcovid19.maps.arcgis.com/apps/opsdashboard/index.html#/8caa437261f2440093ce28e33e3ba6dd"
  },
  {
    "name": "WHO",
    "link": "https://www.who.int/emergencies/diseases/novel-coronavirus-2019"
  },
  {
    "name": "UNICEF Indonesia",
    "link": "https://www.unicef.org/indonesia/id/coronavirus"
  },
  {
    "name": "Situs Resmi Pemerintah untuk COVID-19",
    "link": "https://www.covid19.go.id"
  },
  {
    "name": "Peta Kasus Global COVID-19",
    "link": "https://arcg.is/0fHmTX"
  },
  {
    "name": "Peta Kasus Global COVID-19 (versi mobile)",
    "link": "https://arcg.is/1DPOWm0"
  },
  {
    "name": "Kominfo - Kumpulan Hoaks Terkait Virus Corona",
    "link": "https://kominfo.go.id/content/all/virus_corona"
  },
  {
    "name": "Daftar Situs Resmi Pemerintah Daerah",
    "link": "/pemerintah-daerah"
  }
]
